<?xml version="1.0" encoding="utf-8"?>
<!-- Generator: Adobe Illustrator 16.0.4, SVG Export Plug-In . SVG Version: 6.00 Build 0)  -->
<!DOCTYPE svg PUBLIC "-//W3C//DTD SVG 1.1//EN" "http://www.w3.org/Graphics/SVG/1.1/DTD/svg11.dtd">
<svg version="1.1" id="Layer_1" xmlns="http://www.w3.org/2000/svg" xmlns:xlink="http://www.w3.org/1999/xlink" x="0px" y="0px"
	 width="374.046px" height="42.255px" viewBox="0 0 374.046 42.255" enable-background="new 0 0 374.046 42.255"
	 xml:space="preserve">
<g>
	<g>
		<path fill="#999999" d="M324.116,28.91c-1.026,0-1.894,0.866-1.894,1.891s0.867,1.892,1.894,1.892s1.893-0.866,1.893-1.892
			S325.143,28.91,324.116,28.91z"/>
		<path fill="#999999" d="M338.014,29.304l-0.221,0.207c-0.938,0.885-1.884,1.297-2.981,1.297c-2.896,0-4.213-2.77-4.213-5.343
			c0-1.679,0.697-4.855,3.34-4.855c0.375,0,1.342,0.126,1.342,0.699c0,0.114-0.024,0.221-0.055,0.346
			c-0.034,0.149-0.073,0.319-0.073,0.526c0,0.928,0.869,1.481,1.713,1.481c1.016,0,1.812-0.764,1.812-1.737
			c0-2.305-2.897-2.918-4.609-2.918c-3.909,0-6.973,2.95-6.973,6.714c0,4.04,3.03,6.971,7.202,6.971
			c1.955,0,3.512-0.654,4.756-2.003l0.225-0.242L338.014,29.304z"/>
		<path fill="#999999" d="M346.095,19.007c-3.75,0-6.688,3.051-6.688,6.946c0,3.842,2.942,6.739,6.842,6.739
			c3.751,0,6.69-3.05,6.69-6.945C352.938,21.905,349.997,19.007,346.095,19.007z M349.437,25.979c0,1.537-0.312,5.112-3.214,5.112
			c-2.885,0-3.314-3.363-3.314-5.369c0-1.198,0.231-5.112,3.212-5.112C348.86,20.61,349.437,23.529,349.437,25.979z"/>
		<path fill="#999999" d="M373.201,30.604c-0.332-0.047-0.515-0.073-0.515-0.804v-6.824c0-3.28-2.354-3.969-4.33-3.969
			c-1.338,0-2.616,0.548-3.806,1.632c-0.739-1.07-1.968-1.632-3.581-1.632c-1.214,0-2.339,0.43-3.419,1.314V19.28l-4.296,0.121
			v0.831c0,0.72,0.523,0.812,0.807,0.861c0.328,0.059,0.526,0.093,0.526,0.806V29.8c0,0.717-0.177,0.745-0.499,0.795
			c-0.292,0.046-0.834,0.13-0.834,0.924v0.788h5.887V31.52c0-0.816-0.576-0.877-0.886-0.911c-0.354-0.038-0.55-0.058-0.55-0.808
			v-7.508c0.557-0.691,1.679-1.401,2.545-1.401c0.575,0,1.016,0.158,1.315,0.469c0.57,0.593,0.53,1.604,0.516,1.985l-0.004,6.455
			c0,0.717-0.177,0.745-0.499,0.795c-0.291,0.046-0.834,0.13-0.834,0.924v0.788h5.811V31.52c0-0.795-0.55-0.874-0.845-0.916
			c-0.331-0.047-0.515-0.073-0.515-0.804v-7.519c0.51-0.712,1.675-1.39,2.417-1.39c0.65,0,1.142,0.172,1.463,0.511
			c0.562,0.589,0.517,1.563,0.498,1.93L369.57,29.8c0,0.717-0.179,0.745-0.502,0.795c-0.29,0.046-0.833,0.13-0.833,0.924v0.788
			h5.811V31.52C374.046,30.725,373.496,30.646,373.201,30.604z"/>
	</g>
	<g>
		<g>
			<g>
				<polygon fill="#70850F" points="289.967,2.012 271.093,23.976 279.141,36.475 				"/>
			</g>
			<polygon fill="#70850F" points="297.485,20.718 306.975,30.139 317.829,27.286 292.641,2.286 281.813,36.752 293.406,33.704 			
				"/>
		</g>
		<g>
			<polygon fill="#70850F" points="277.461,0 266.149,0 266.149,11.311 269.369,11.311 269.369,3.219 277.461,3.219 			"/>
			<polygon fill="#70850F" points="308.311,0 308.311,3.219 316.4,3.219 316.4,11.311 319.62,11.311 319.62,0 			"/>
			<polygon fill="#70850F" points="269.369,39.035 269.369,30.944 266.149,30.944 266.149,42.255 277.461,42.255 277.461,39.035 			
				"/>
			<polygon fill="#70850F" points="316.4,30.944 316.4,39.035 308.311,39.035 308.311,42.255 319.62,42.255 319.62,30.944 			"/>
		</g>
	</g>
	<g>
		<path fill="#353231" d="M9.233,15.79c-2.816-1.087-5.249-2.026-5.249-4.592c0-2.076,1.644-3.584,3.908-3.584
			c2.884,0,3.6,1.919,4.174,3.46c0.357,0.96,0.667,1.789,1.472,1.789h1.45V6.454h-1.893L12.999,6.57
			c-0.243,0.292-0.392,0.354-0.473,0.354c-0.093,0-0.38-0.169-0.61-0.304c-0.752-0.442-2.013-1.182-3.987-1.182
			c-4.142,0-7.386,3.117-7.386,7.096c0,5.125,3.841,6.63,7.229,7.96c3.017,1.183,5.622,2.205,5.622,5.361
			c0,2.683-2.193,4.706-5.103,4.706c-3.78,0-4.808-2.429-5.489-4.036c-0.374-0.88-0.668-1.575-1.316-1.575H0v7.422h2.206
			l0.085-0.194c0.114-0.255,0.384-0.53,0.606-0.53c0.189,0,0.661,0.158,1.161,0.325c1.101,0.367,2.607,0.87,4.161,0.87
			c4.872,0,8.689-3.8,8.689-8.653C16.908,18.752,12.831,17.179,9.233,15.79z"/>
		<path fill="#353231" d="M33.407,27.216l-0.201,0.242c-1.658,1.997-3.222,2.888-5.07,2.888c-1.624,0-2.982-0.566-4.04-1.683
			c-1.281-1.354-1.998-3.467-1.945-5.702H34.68l0.009-0.316c0.083-2.7-0.748-5.092-2.339-6.733
			c-1.407-1.452-3.327-2.219-5.552-2.219c-5.224,0-9.015,3.928-9.015,9.341c0,5.622,4.05,9.701,9.629,9.701
			c3.161,0,5.556-1.249,7.539-3.933l0.191-0.258L33.407,27.216z M22.308,20.572c0.18-1.459,0.956-4.705,4.271-4.705
			c1.047,0,1.892,0.336,2.51,0.998c0.77,0.825,1.173,2.162,1.125,3.707H22.308z"/>
		<path fill="#353231" d="M51.695,27.216l-0.2,0.242c-1.657,1.997-3.221,2.888-5.07,2.888c-1.623,0-2.982-0.566-4.039-1.683
			c-1.28-1.354-1.998-3.466-1.945-5.702h12.528l0.009-0.316c0.083-2.701-0.748-5.092-2.339-6.733
			c-1.408-1.452-3.327-2.219-5.553-2.219c-5.224,0-9.014,3.928-9.014,9.341c0,5.622,4.05,9.701,9.629,9.701
			c3.161,0,5.556-1.249,7.539-3.933l0.191-0.258L51.695,27.216z M40.597,20.572c0.181-1.459,0.956-4.705,4.272-4.705
			c1.047,0,1.891,0.336,2.509,0.998c0.77,0.825,1.173,2.162,1.125,3.707H40.597z"/>
	</g>
	<g>
		<path fill="#70850F" d="M65.835,6.091V7.07c0,0.793,0.723,0.963,1.2,1.076c0.531,0.124,0.646,0.19,0.646,0.372
			c0,0.347-0.457,1.135-0.702,1.558c-0.079,0.135-0.147,0.254-0.195,0.343l-4.646,8.061l-5.08-8.478
			c-0.416-0.621-0.705-1.217-0.705-1.448c0-0.311,0.103-0.357,0.584-0.434c0.417-0.067,1.117-0.178,1.117-1.05V6.091h-8.871V7.07
			c0,0.72,0.244,0.895,0.723,0.98c0.406,0.073,1.084,0.193,2.184,2.011l6.831,11.361v7.186c0,1.442-0.443,1.485-0.956,1.534
			c-0.401,0.039-1.071,0.104-1.071,1.072v0.979h8.4v-0.979c0-0.967-0.662-1.033-1.057-1.072c-0.501-0.049-0.934-0.092-0.934-1.534
			V21.17l6.577-10.819c1.271-2.106,2.002-2.272,2.395-2.361c0.436-0.099,0.657-0.268,0.657-0.92V6.091H65.835z"/>
		<path fill="#70850F" d="M76.762,13.693c-5.217,0-9.304,4.247-9.304,9.666c0,5.346,4.093,9.376,9.521,9.376
			c5.217,0,9.304-4.246,9.304-9.665C86.284,17.724,82.19,13.693,76.762,13.693z M81.613,23.396c0,2.209-0.455,7.348-4.668,7.348
			c-4.188,0-4.813-4.83-4.813-7.709c0-1.725,0.336-7.348,4.668-7.348C80.778,15.686,81.613,19.878,81.613,23.396z"/>
		<path fill="#70850F" d="M105.025,30.059c-0.497-0.088-0.856-0.151-0.856-1.27V14.083l-6.084,0.162v0.971
			c0,1.006,0.659,1.099,1.094,1.158c0.5,0.07,0.862,0.121,0.862,1.267v10.776c-1.209,0.964-2.194,1.712-3.764,1.712
			c-3.474,0-3.474-2.236-3.474-3.438V14.083l-6.012,0.162v0.971c0,1.004,0.64,1.104,1.062,1.17c0.476,0.075,0.82,0.129,0.82,1.254
			v9.122c0,3.686,2.358,5.973,6.155,5.973c1.775,0,3.813-0.696,5.283-1.776v1.234h5.939v-1.051
			C106.052,30.239,105.434,30.131,105.025,30.059z"/>
		<path fill="#70850F" d="M118.102,13.693c-2.294,0-3.538,2.333-4.38,4.376v-3.987l-6.229,0.162v0.971
			c0,1.123,0.75,1.156,1.198,1.178c0.542,0.024,0.901,0.041,0.901,1.247v11.149c0,1.207-0.358,1.224-0.901,1.248
			c-0.448,0.021-1.198,0.055-1.198,1.178v0.979h8.4v-0.979c0-1.147-0.783-1.16-1.25-1.168c-0.577-0.01-0.958-0.017-0.958-1.257
			v-4.792c0-2.412,1.544-6.253,3.075-6.248c0.232,0.001,0.967,0.508,1.594,0.508c1.193,0,2.428-0.813,2.428-2.174
			C120.783,14.676,119.68,13.693,118.102,13.693z"/>
	</g>
	<g>
		<path fill="#353231" d="M139.846,27.386c-1.349,1.538-2.872,2.959-5.638,2.959c-5.611,0-7.601-6.084-7.601-11.293
			c0-2.684,0.488-11.439,6.768-11.439c3.671,0,4.516,2.372,5.194,4.278c0.434,1.22,0.81,2.273,1.865,2.273h1.232V6.852h-1.995
			l-0.061,0.247c-0.134,0.53-0.594,0.229-1.276-0.163c-1.043-0.595-2.619-1.497-5.176-1.497c-7.741,0-11.223,8.002-11.223,13.685
			c0,6.819,3.991,13.721,11.621,13.721c3.419,0,5.839-1.19,8.1-4.022L139.846,27.386z"/>
		<path fill="#353231" d="M188.298,30.075c-0.489-0.069-0.841-0.118-0.841-1.266v-9.629c0-4.519-3.248-5.467-5.973-5.467
			c-1.898,0-3.712,0.798-5.396,2.374c-1.262-1.951-3.406-2.374-5.029-2.374c-1.763,0-3.391,0.657-4.958,2.008v-1.62l-5.794,0.163
			v1.042c0,0.903,0.617,1.011,1.026,1.083c0.497,0.087,0.855,0.15,0.855,1.27v10.956c0,1.126-0.421,1.473-0.849,1.692
			c-0.72,0.37-2.841,0.428-3.464-0.331c-0.394-0.479-0.382-1.128-0.382-2.257l0.001-6.802c0-2.166-0.734-7.205-7.531-7.205
			c-1.546,0-5.792,0.807-5.792,3.403c0,1.198,0.95,2.101,2.209,2.101c1.324,0,2.298-0.904,2.424-2.245
			c0.109-0.981,0.377-1.266,1.196-1.266c2.099,0,3.193,1.667,3.254,4.954c-8.904,0.954-10.785,4.163-10.785,6.701
			c0,3.542,3.206,5.394,6.372,5.394c2.31,0,3.674-0.826,5.102-2.271c0.393,1.145,1.038,1.636,1.946,1.713
			c0.061,0.01,0.146,0.016,0.264,0.016c0.365,0,0.792,0.004,1.234,0c3.311,0,10.958,0,10.958,0v-0.979
			c0-1.031-0.708-1.105-1.132-1.15c-0.52-0.056-0.895-0.095-0.895-1.274V18.167c0.793-1.009,2.407-2.064,3.728-2.064
			c0.847,0,1.504,0.236,1.953,0.702c0.844,0.878,0.787,2.347,0.766,2.899l-0.005,9.104c0,1.127-0.343,1.18-0.819,1.254
			c-0.424,0.066-1.064,0.166-1.064,1.171v0.979h7.931v-0.979c0-1.006-0.649-1.097-1.078-1.159c-0.488-0.069-0.841-0.118-0.841-1.266
			V18.156c0.737-1.066,2.431-2.053,3.546-2.053c0.953,0,1.681,0.256,2.163,0.761c0.832,0.873,0.764,2.29,0.739,2.824
			c-0.004,0.077-0.006,0.136-0.006,0.178v8.941c0,1.127-0.344,1.18-0.82,1.254c-0.422,0.066-1.062,0.166-1.062,1.171v0.979h7.93
			v-0.979C189.376,30.227,188.726,30.136,188.298,30.075z M153.365,25.768c0,3.628-2.366,4.597-3.764,4.597
			c-1.948,0-2.642-1.514-2.642-2.932c0-3.668,4.519-4.566,6.405-4.78V25.768z"/>
		<path fill="#353231" d="M200.119,13.789c-2.2,0-3.706,0.795-4.958,1.748v-1.359l-5.723,0.164v1.042c0,0.875,0.606,1,1.006,1.082
			l0.147,0.032c0.278,0.068,0.621,0.155,0.621,1.239V36.27c0,1.137-0.356,1.185-0.851,1.25c-0.439,0.058-1.104,0.146-1.104,1.175
			v0.978h8.22v-0.978c0-1.077-0.75-1.137-1.199-1.171c-0.564-0.044-0.938-0.073-0.938-1.254v-4.641
			c1.339,0.738,2.722,1.103,4.525,1.202c5.2,0,8.833-3.959,8.833-9.63C208.699,17.659,205.17,13.789,200.119,13.789z
			 M195.341,17.342c0.94-0.787,2.27-1.271,3.51-1.271c4.672,0,5.175,4.91,5.175,7.022c0,2.785-0.671,7.456-5.175,7.456
			c-1.241,0-2.57-0.485-3.51-1.271V17.342z"/>
		<path fill="#353231" d="M218.114,15.904c-2.817-1.087-5.25-2.027-5.25-4.593c0-2.076,1.644-3.583,3.909-3.583
			c2.884,0,3.6,1.919,4.174,3.46c0.357,0.96,0.667,1.789,1.472,1.789h1.45V6.569h-1.892l-0.099,0.117
			c-0.243,0.292-0.392,0.354-0.473,0.354c-0.093,0-0.38-0.168-0.609-0.304c-0.754-0.441-2.014-1.181-3.988-1.181
			c-4.143,0-7.385,3.116-7.385,7.096c0,5.125,3.839,6.63,7.229,7.96c3.016,1.183,5.621,2.206,5.621,5.361
			c0,2.683-1.947,4.706-4.854,4.706c-3.78,0-4.502-2.429-5.183-4.036c-0.372-0.88-0.667-1.575-1.315-1.575h-1.486v7.423h2.205
			l0.086-0.194c0.115-0.255,0.385-0.53,0.607-0.53c0.188,0,0.661,0.158,1.161,0.325c1.1,0.367,2.3,0.87,3.852,0.87
			c4.873,0,8.443-3.801,8.443-8.653C225.789,18.868,221.711,17.293,218.114,15.904z"/>
		<g>
			<path fill="#353231" d="M230.856,12.326c1.376,0,2.535-1.161,2.535-2.536c0-1.374-1.159-2.534-2.535-2.534
				c-1.374,0-2.533,1.16-2.533,2.534C228.323,11.165,229.482,12.326,230.856,12.326z"/>
			<path fill="#353231" d="M233.969,30.168c-0.44-0.092-0.758-0.158-0.758-1.264V14.198l-5.903,0.162v0.97
				c0,0.956,0.601,1.08,0.999,1.161c0.449,0.092,0.774,0.16,0.774,1.264v11.15c0,1.104-0.325,1.171-0.774,1.264
				c-0.398,0.082-0.999,0.205-0.999,1.161v0.979h7.641v-0.979C234.948,30.374,234.358,30.251,233.969,30.168z"/>
		</g>
		<path fill="#353231" d="M246.972,29.476l-0.524,0.3c-0.682,0.374-1.034,0.466-1.798,0.466c-1.484,0-2.062-0.802-2.062-2.859
			V16.959h4.272v-2.608h-4.272V9.082l-2.658,0.165c-0.805,0.037-1.47,0.169-1.47,1.413v2.389c0,1.212-0.558,1.344-1.259,1.512
			c-0.539,0.127-1.276,0.302-1.276,1.239v1.16h2.535v11.293c0,1.383,0.454,4.598,4.67,4.598c1.597,0,3.542-0.655,4.626-1.559
			l0.217-0.181L246.972,29.476z"/>
		<path fill="#353231" d="M262.735,27.331l-0.201,0.242c-1.655,1.996-3.22,2.887-5.068,2.887c-1.624,0-2.983-0.566-4.038-1.682
			c-1.281-1.354-1.997-3.466-1.947-5.702h12.529l0.009-0.316c0.084-2.701-0.748-5.091-2.339-6.733
			c-1.408-1.452-3.327-2.219-5.553-2.219c-5.226,0-9.015,3.928-9.015,9.34c0,5.623,4.049,9.702,9.63,9.702
			c3.161,0,5.556-1.249,7.539-3.933l0.19-0.257L262.735,27.331z M251.638,20.687c0.181-1.459,0.956-4.705,4.271-4.705
			c1.048,0,1.893,0.335,2.509,0.998c0.77,0.824,1.175,2.163,1.126,3.707H251.638z"/>
	</g>
</g>
</svg>
